{
  "product_name_slug": "product",
  "gitlab_project_slug": "{{ cookiecutter.product_name_slug }}",
  "use_drf": [false, true],
  "use_allauth": [false, true],
  "db_instance_name": "shared-db",
  "prd_db_name": "prd_{{ cookiecutter.product_name_slug }}",
  "product_prd_project_id": "prd-{{ cookiecutter.product_name_slug }}-12345",
  "product_stg_project_id": "stg-{{ cookiecutter.product_name_slug }}-12345",
  "product_dev_project_id": "dev-{{ cookiecutter.product_name_slug }}-12345",
  "db_instance_project_id": "prd-company-12345",
  "vault_addr": "https://auth.myorg.com",
  "gcp_roleset": "{{ cookiecutter.product_name_slug[0:7] }}-ow",
  "terraform_org_name":"MyCompany",
  "terraform_is_org_workspace_name":"prd-is-org",
  "terraform_is_vault_workspace_name":"prd-is-vault",
  "terraform_output_var_name_prd_project_id":"prd_{{ cookiecutter.product_name_slug }}_project_id",
  "terraform_output_var_name_org_project_id":"org_project_id"
  "vault_env_kv2_name": "service_config"
}
